$MeshFormat
2.2 0 8
$EndMeshFormat
$Nodes
80
1 0.00000000000000000e+00 1.00000000000000000e+00 0.00000000000000000e+00
2 1.26582278481012656e-02 1.00000000000000000e+00 0.00000000000000000e+00
3 2.53164556962025313e-02 1.00000000000000000e+00 0.00000000000000000e+00
4 3.79746835443037986e-02 1.00000000000000000e+00 0.00000000000000000e+00
5 5.06329113924050625e-02 1.00000000000000000e+00 0.00000000000000000e+00
6 6.32911392405063333e-02 1.00000000000000000e+00 0.00000000000000000e+00
7 7.59493670886075972e-02 1.00000000000000000e+00 0.00000000000000000e+00
8 8.86075949367088611e-02 1.00000000000000000e+00 0.00000000000000000e+00
9 1.01265822784810125e-01 1.00000000000000000e+00 0.00000000000000000e+00
10 1.13924050632911389e-01 1.00000000000000000e+00 0.00000000000000000e+00
11 1.26582278481012667e-01 1.00000000000000000e+00 0.00000000000000000e+00
12 1.39240506329113917e-01 1.00000000000000000e+00 0.00000000000000000e+00
13 1.51898734177215194e-01 1.00000000000000000e+00 0.00000000000000000e+00
14 1.64556962025316444e-01 1.00000000000000000e+00 0.00000000000000000e+00
15 1.77215189873417722e-01 1.00000000000000000e+00 0.00000000000000000e+00
16 1.89873417721518972e-01 1.00000000000000000e+00 0.00000000000000000e+00
17 2.02531645569620250e-01 1.00000000000000000e+00 0.00000000000000000e+00
18 2.15189873417721528e-01 1.00000000000000000e+00 0.00000000000000000e+00
19 2.27848101265822778e-01 1.00000000000000000e+00 0.00000000000000000e+00
20 2.40506329113924056e-01 1.00000000000000000e+00 0.00000000000000000e+00
21 2.53164556962025333e-01 1.00000000000000000e+00 0.00000000000000000e+00
22 2.65822784810126556e-01 1.00000000000000000e+00 0.00000000000000000e+00
23 2.78481012658227833e-01 1.00000000000000000e+00 0.00000000000000000e+00
24 2.91139240506329111e-01 1.00000000000000000e+00 0.00000000000000000e+00
25 3.03797468354430389e-01 1.00000000000000000e+00 0.00000000000000000e+00
26 3.16455696202531667e-01 1.00000000000000000e+00 0.00000000000000000e+00
27 3.29113924050632889e-01 1.00000000000000000e+00 0.00000000000000000e+00
28 3.41772151898734167e-01 1.00000000000000000e+00 0.00000000000000000e+00
29 3.54430379746835444e-01 1.00000000000000000e+00 0.00000000000000000e+00
30 3.67088607594936722e-01 1.00000000000000000e+00 0.00000000000000000e+00
31 3.79746835443037944e-01 1.00000000000000000e+00 0.00000000000000000e+00
32 3.92405063291139222e-01 1.00000000000000000e+00 0.00000000000000000e+00
33 4.05063291139240500e-01 1.00000000000000000e+00 0.00000000000000000e+00
34 4.17721518987341778e-01 1.00000000000000000e+00 0.00000000000000000e+00
35 4.30379746835443056e-01 1.00000000000000000e+00 0.00000000000000000e+00
36 4.43037974683544278e-01 1.00000000000000000e+00 0.00000000000000000e+00
37 4.55696202531645556e-01 1.00000000000000000e+00 0.00000000000000000e+00
38 4.68354430379746833e-01 1.00000000000000000e+00 0.00000000000000000e+00
39 4.81012658227848111e-01 1.00000000000000000e+00 0.00000000000000000e+00
40 4.93670886075949333e-01 1.00000000000000000e+00 0.00000000000000000e+00
41 5.06329113924050667e-01 1.00000000000000000e+00 0.00000000000000000e+00
42 5.18987341772151889e-01 1.00000000000000000e+00 0.00000000000000000e+00
43 5.31645569620253111e-01 1.00000000000000000e+00 0.00000000000000000e+00
44 5.44303797468354444e-01 1.00000000000000000e+00 0.00000000000000000e+00
45 5.56962025316455667e-01 1.00000000000000000e+00 0.00000000000000000e+00
46 5.69620253164557000e-01 1.00000000000000000e+00 0.00000000000000000e+00
47 5.82278481012658222e-01 1.00000000000000000e+00 0.00000000000000000e+00
48 5.94936708860759444e-01 1.00000000000000000e+00 0.00000000000000000e+00
49 6.07594936708860778e-01 1.00000000000000000e+00 0.00000000000000000e+00
50 6.20253164556962000e-01 1.00000000000000000e+00 0.00000000000000000e+00
51 6.32911392405063333e-01 1.00000000000000000e+00 0.00000000000000000e+00
52 6.45569620253164556e-01 1.00000000000000000e+00 0.00000000000000000e+00
53 6.58227848101265778e-01 1.00000000000000000e+00 0.00000000000000000e+00
54 6.70886075949367111e-01 1.00000000000000000e+00 0.00000000000000000e+00
55 6.83544303797468333e-01 1.00000000000000000e+00 0.00000000000000000e+00
56 6.96202531645569556e-01 1.00000000000000000e+00 0.00000000000000000e+00
57 7.08860759493670889e-01 1.00000000000000000e+00 0.00000000000000000e+00
58 7.21518987341772111e-01 1.00000000000000000e+00 0.00000000000000000e+00
59 7.34177215189873444e-01 1.00000000000000000e+00 0.00000000000000000e+00
60 7.46835443037974667e-01 1.00000000000000000e+00 0.00000000000000000e+00
61 7.59493670886075889e-01 1.00000000000000000e+00 0.00000000000000000e+00
62 7.72151898734177222e-01 1.00000000000000000e+00 0.00000000000000000e+00
63 7.84810126582278444e-01 1.00000000000000000e+00 0.00000000000000000e+00
64 7.97468354430379778e-01 1.00000000000000000e+00 0.00000000000000000e+00
65 8.10126582278481000e-01 1.00000000000000000e+00 0.00000000000000000e+00
66 8.22784810126582222e-01 1.00000000000000000e+00 0.00000000000000000e+00
67 8.35443037974683556e-01 1.00000000000000000e+00 0.00000000000000000e+00
68 8.48101265822784778e-01 1.00000000000000000e+00 0.00000000000000000e+00
69 8.60759493670886111e-01 1.00000000000000000e+00 0.00000000000000000e+00
70 8.73417721518987333e-01 1.00000000000000000e+00 0.00000000000000000e+00
71 8.86075949367088556e-01 1.00000000000000000e+00 0.00000000000000000e+00
72 8.98734177215189889e-01 1.00000000000000000e+00 0.00000000000000000e+00
73 9.11392405063291111e-01 1.00000000000000000e+00 0.00000000000000000e+00
74 9.24050632911392444e-01 1.00000000000000000e+00 0.00000000000000000e+00
75 9.36708860759493667e-01 1.00000000000000000e+00 0.00000000000000000e+00
76 9.49367088607594889e-01 1.00000000000000000e+00 0.00000000000000000e+00
77 9.62025316455696222e-01 1.00000000000000000e+00 0.00000000000000000e+00
78 9.74683544303797444e-01 1.00000000000000000e+00 0.00000000000000000e+00
79 9.87341772151898667e-01 1.00000000000000000e+00 0.00000000000000000e+00
80 1.00000000000000000e+00 1.00000000000000000e+00 0.00000000000000000e+00
$EndNodes
$Elements
81
1 1 2 2 5 1 2
2 1 2 2 5 2 3
3 1 2 2 5 3 4
4 1 2 2 5 4 5
5 1 2 2 5 5 6
6 1 2 2 5 6 7
7 1 2 2 5 7 8
8 1 2 2 5 8 9
9 1 2 2 5 9 10
10 1 2 2 5 10 11
11 1 2 2 5 11 12
12 1 2 2 5 12 13
13 1 2 2 5 13 14
14 1 2 2 5 14 15
15 1 2 2 5 15 16
16 1 2 2 5 16 17
17 1 2 2 5 17 18
18 1 2 2 5 18 19
19 1 2 2 5 19 20
20 1 2 2 5 20 21
21 1 2 2 5 21 22
22 1 2 2 5 22 23
23 1 2 2 5 23 24
24 1 2 2 5 24 25
25 1 2 2 5 25 26
26 1 2 2 5 26 27
27 1 2 2 5 27 28
28 1 2 2 5 28 29
29 1 2 2 5 29 30
30 1 2 2 5 30 31
31 1 2 2 5 31 32
32 1 2 2 5 32 33
33 1 2 2 5 33 34
34 1 2 2 5 34 35
35 1 2 2 5 35 36
36 1 2 2 5 36 37
37 1 2 2 5 37 38
38 1 2 2 5 38 39
39 1 2 2 5 39 40
40 1 2 2 5 40 41
41 1 2 2 5 41 42
42 1 2 2 5 42 43
43 1 2 2 5 43 44
44 1 2 2 5 44 45
45 1 2 2 5 45 46
46 1 2 2 5 46 47
47 1 2 2 5 47 48
48 1 2 2 5 48 49
49 1 2 2 5 49 50
50 1 2 2 5 50 51
51 1 2 2 5 51 52
52 1 2 2 5 52 53
53 1 2 2 5 53 54
54 1 2 2 5 54 55
55 1 2 2 5 55 56
56 1 2 2 5 56 57
57 1 2 2 5 57 58
58 1 2 2 5 58 59
59 1 2 2 5 59 60
60 1 2 2 5 60 61
61 1 2 2 5 61 62
62 1 2 2 5 62 63
63 1 2 2 5 63 64
64 1 2 2 5 64 65
65 1 2 2 5 65 66
66 1 2 2 5 66 67
67 1 2 2 5 67 68
68 1 2 2 5 68 69
69 1 2 2 5 69 70
70 1 2 2 5 70 71
71 1 2 2 5 71 72
72 1 2 2 5 72 73
73 1 2 2 5 73 74
74 1 2 2 5 74 75
75 1 2 2 5 75 76
76 1 2 2 5 76 77
77 1 2 2 5 77 78
78 1 2 2 5 78 79
79 1 2 2 5 79 80
80 15 2 3 6 1
81 15 2 4 7 80
$EndElements
