$MeshFormat
2.2 0 8
$EndMeshFormat
$Nodes
21
1 0.00000000000000000e+00 1.00000000000000000e+00 0.00000000000000000e+00
2 5.00000000000000028e-02 1.00000000000000000e+00 0.00000000000000000e+00
3 1.00000000000000006e-01 1.00000000000000000e+00 0.00000000000000000e+00
4 1.50000000000000022e-01 1.00000000000000000e+00 0.00000000000000000e+00
5 2.00000000000000011e-01 1.00000000000000000e+00 0.00000000000000000e+00
6 2.50000000000000000e-01 1.00000000000000000e+00 0.00000000000000000e+00
7 3.00000000000000044e-01 1.00000000000000000e+00 0.00000000000000000e+00
8 3.50000000000000033e-01 1.00000000000000000e+00 0.00000000000000000e+00
9 4.00000000000000022e-01 1.00000000000000000e+00 0.00000000000000000e+00
10 4.50000000000000011e-01 1.00000000000000000e+00 0.00000000000000000e+00
11 5.00000000000000000e-01 1.00000000000000000e+00 0.00000000000000000e+00
12 5.50000000000000044e-01 1.00000000000000000e+00 0.00000000000000000e+00
13 6.00000000000000089e-01 1.00000000000000000e+00 0.00000000000000000e+00
14 6.50000000000000022e-01 1.00000000000000000e+00 0.00000000000000000e+00
15 7.00000000000000067e-01 1.00000000000000000e+00 0.00000000000000000e+00
16 7.50000000000000000e-01 1.00000000000000000e+00 0.00000000000000000e+00
17 8.00000000000000044e-01 1.00000000000000000e+00 0.00000000000000000e+00
18 8.50000000000000089e-01 1.00000000000000000e+00 0.00000000000000000e+00
19 9.00000000000000022e-01 1.00000000000000000e+00 0.00000000000000000e+00
20 9.50000000000000067e-01 1.00000000000000000e+00 0.00000000000000000e+00
21 1.00000000000000000e+00 1.00000000000000000e+00 0.00000000000000000e+00
$EndNodes
$Elements
22
1 1 2 2 5 1 2
2 1 2 2 5 2 3
3 1 2 2 5 3 4
4 1 2 2 5 4 5
5 1 2 2 5 5 6
6 1 2 2 5 6 7
7 1 2 2 5 7 8
8 1 2 2 5 8 9
9 1 2 2 5 9 10
10 1 2 2 5 10 11
11 1 2 2 5 11 12
12 1 2 2 5 12 13
13 1 2 2 5 13 14
14 1 2 2 5 14 15
15 1 2 2 5 15 16
16 1 2 2 5 16 17
17 1 2 2 5 17 18
18 1 2 2 5 18 19
19 1 2 2 5 19 20
20 1 2 2 5 20 21
21 15 2 3 6 1
22 15 2 4 7 21
$EndElements
