$MeshFormat
2.2 0 8
$EndMeshFormat
$Nodes
104
1 0 0 0
2 0 0.082478609884232251 0
3 0 0.1649572197684645 0
4 0 0.24743582965269675 0
5 0 0.32991443953692901 0
6 0 0.41239304942116128 0
7 0 0.49487165930539356 0
8 0 0.57735026918962584 0
9 0 0.65982887907385812 0
10 0 0.7423074889580904 0
11 0 0.82478609884232268 0
12 0 0.90726470872655496 0
13 0 0.98974331861078724 0
14 0.14285714285714285 0 0
15 0.14285714285714285 0.082478609884232251 0
16 0.14285714285714285 0.1649572197684645 0
17 0.14285714285714285 0.24743582965269675 0
18 0.14285714285714285 0.32991443953692901 0
19 0.14285714285714285 0.41239304942116128 0
20 0.14285714285714285 0.49487165930539356 0
21 0.14285714285714285 0.57735026918962584 0
22 0.14285714285714285 0.65982887907385812 0
23 0.14285714285714285 0.7423074889580904 0
24 0.14285714285714285 0.82478609884232268 0
25 0.14285714285714285 0.90726470872655496 0
26 0.14285714285714285 0.98974331861078724 0
27 0.2857142857142857 0 0
28 0.2857142857142857 0.082478609884232251 0
29 0.2857142857142857 0.1649572197684645 0
30 0.2857142857142857 0.24743582965269675 0
31 0.2857142857142857 0.32991443953692901 0
32 0.2857142857142857 0.41239304942116128 0
33 0.2857142857142857 0.49487165930539356 0
34 0.2857142857142857 0.57735026918962584 0
35 0.2857142857142857 0.65982887907385812 0
36 0.2857142857142857 0.7423074889580904 0
37 0.2857142857142857 0.82478609884232268 0
38 0.2857142857142857 0.90726470872655496 0
39 0.2857142857142857 0.98974331861078724 0
40 0.42857142857142855 0 0
41 0.42857142857142855 0.082478609884232251 0
42 0.42857142857142855 0.1649572197684645 0
43 0.42857142857142855 0.24743582965269675 0
44 0.42857142857142855 0.32991443953692901 0
45 0.42857142857142855 0.41239304942116128 0
46 0.42857142857142855 0.49487165930539356 0
47 0.42857142857142855 0.57735026918962584 0
48 0.42857142857142855 0.65982887907385812 0
49 0.42857142857142855 0.7423074889580904 0
50 0.42857142857142855 0.82478609884232268 0
51 0.42857142857142855 0.90726470872655496 0
52 0.42857142857142855 0.98974331861078724 0
53 0.5714285714285714 0 0
54 0.5714285714285714 0.082478609884232251 0
55 0.5714285714285714 0.1649572197684645 0
56 0.5714285714285714 0.24743582965269675 0
57 0.5714285714285714 0.32991443953692901 0
58 0.5714285714285714 0.41239304942116128 0
59 0.5714285714285714 0.49487165930539356 0
60 0.5714285714285714 0.57735026918962584 0
61 0.5714285714285714 0.65982887907385812 0
62 0.5714285714285714 0.7423074889580904 0
63 0.5714285714285714 0.82478609884232268 0
64 0.5714285714285714 0.90726470872655496 0
65 0.5714285714285714 0.98974331861078724 0
66 0.71428571428571419 0 0
67 0.71428571428571419 0.082478609884232251 0
68 0.71428571428571419 0.1649572197684645 0
69 0.71428571428571419 0.24743582965269675 0
70 0.71428571428571419 0.32991443953692901 0
71 0.71428571428571419 0.41239304942116128 0
72 0.71428571428571419 0.49487165930539356 0
73 0.71428571428571419 0.57735026918962584 0
74 0.71428571428571419 0.65982887907385812 0
75 0.71428571428571419 0.7423074889580904 0
76 0.71428571428571419 0.82478609884232268 0
77 0.71428571428571419 0.90726470872655496 0
78 0.71428571428571419 0.98974331861078724 0
79 0.8571428571428571 0 0
80 0.8571428571428571 0.082478609884232251 0
81 0.8571428571428571 0.1649572197684645 0
82 0.8571428571428571 0.24743582965269675 0
83 0.8571428571428571 0.32991443953692901 0
84 0.8571428571428571 0.41239304942116128 0
85 0.8571428571428571 0.49487165930539356 0
86 0.8571428571428571 0.57735026918962584 0
87 0.8571428571428571 0.65982887907385812 0
88 0.8571428571428571 0.7423074889580904 0
89 0.8571428571428571 0.82478609884232268 0
90 0.8571428571428571 0.90726470872655496 0
91 0.8571428571428571 0.98974331861078724 0
92 1 0 0
93 1 0.082478609884232251 0
94 1 0.1649572197684645 0
95 1 0.24743582965269675 0
96 1 0.32991443953692901 0
97 1 0.41239304942116128 0
98 1 0.49487165930539356 0
99 1 0.57735026918962584 0
100 1 0.65982887907385812 0
101 1 0.7423074889580904 0
102 1 0.82478609884232268 0
103 1 0.90726470872655496 0
104 1 0.98974331861078724 0
$EndNodes
$Elements
206
1 2 2 1 2 1 14 15
2 2 2 1 2 1 15 2
3 2 2 1 2 2 15 3
4 2 2 1 2 3 15 16
5 2 2 1 2 3 16 17
6 2 2 1 2 3 17 4
7 2 2 1 2 4 17 5
8 2 2 1 2 5 17 18
9 2 2 1 2 5 18 19
10 2 2 1 2 5 19 6
11 2 2 1 2 6 19 7
12 2 2 1 2 7 19 20
13 2 2 1 2 7 20 21
14 2 2 1 2 7 21 8
15 2 2 1 2 8 21 9
16 2 2 1 2 9 21 22
17 2 2 1 2 9 22 23
18 2 2 1 2 9 23 10
19 2 2 1 2 10 23 11
20 2 2 1 2 11 23 24
21 2 2 1 2 11 24 25
22 2 2 1 2 11 25 12
23 2 2 1 2 12 25 13
24 2 2 1 2 13 25 26
25 2 2 1 2 14 27 15
26 2 2 1 2 15 27 28
27 2 2 1 2 15 28 29
28 2 2 1 2 15 29 16
29 2 2 1 2 16 29 17
30 2 2 1 2 17 29 30
31 2 2 1 2 17 30 31
32 2 2 1 2 17 31 18
33 2 2 1 2 18 31 19
34 2 2 1 2 19 31 32
35 2 2 1 2 19 32 33
36 2 2 1 2 19 33 20
37 2 2 1 2 20 33 21
38 2 2 1 2 21 33 34
39 2 2 1 2 21 34 35
40 2 2 1 2 21 35 22
41 2 2 1 2 22 35 23
42 2 2 1 2 23 35 36
43 2 2 1 2 23 36 37
44 2 2 1 2 23 37 24
45 2 2 1 2 24 37 25
46 2 2 1 2 25 37 38
47 2 2 1 2 25 38 39
48 2 2 1 2 25 39 26
49 2 2 1 2 27 40 41
50 2 2 1 2 27 41 28
51 2 2 1 2 28 41 29
52 2 2 1 2 29 41 42
53 2 2 1 2 29 42 43
54 2 2 1 2 29 43 30
55 2 2 1 2 30 43 31
56 2 2 1 2 31 43 44
57 2 2 1 2 31 44 45
58 2 2 1 2 31 45 32
59 2 2 1 2 32 45 33
60 2 2 1 2 33 45 46
61 2 2 1 2 33 46 47
62 2 2 1 2 33 47 34
63 2 2 1 2 34 47 35
64 2 2 1 2 35 47 48
65 2 2 1 2 35 48 49
66 2 2 1 2 35 49 36
67 2 2 1 2 36 49 37
68 2 2 1 2 37 49 50
69 2 2 1 2 37 50 51
70 2 2 1 2 37 51 38
71 2 2 1 2 38 51 39
72 2 2 1 2 39 51 52
73 2 2 1 2 40 53 41
74 2 2 1 2 41 53 54
75 2 2 1 2 41 54 55
76 2 2 1 2 41 55 42
77 2 2 1 2 42 55 43
78 2 2 1 2 43 55 56
79 2 2 1 2 43 56 57
80 2 2 1 2 43 57 44
81 2 2 1 2 44 57 45
82 2 2 1 2 45 57 58
83 2 2 1 2 45 58 59
84 2 2 1 2 45 59 46
85 2 2 1 2 46 59 47
86 2 2 1 2 47 59 60
87 2 2 1 2 47 60 61
88 2 2 1 2 47 61 48
89 2 2 1 2 48 61 49
90 2 2 1 2 49 61 62
91 2 2 1 2 49 62 63
92 2 2 1 2 49 63 50
93 2 2 1 2 50 63 51
94 2 2 1 2 51 63 64
95 2 2 1 2 51 64 65
96 2 2 1 2 51 65 52
97 2 2 1 2 53 66 67
98 2 2 1 2 53 67 54
99 2 2 1 2 54 67 55
100 2 2 1 2 55 67 68
101 2 2 1 2 55 68 69
102 2 2 1 2 55 69 56
103 2 2 1 2 56 69 57
104 2 2 1 2 57 69 70
105 2 2 1 2 57 70 71
106 2 2 1 2 57 71 58
107 2 2 1 2 58 71 59
108 2 2 1 2 59 71 72
109 2 2 1 2 59 72 73
110 2 2 1 2 59 73 60
111 2 2 1 2 60 73 61
112 2 2 1 2 61 73 74
113 2 2 1 2 61 74 75
114 2 2 1 2 61 75 62
115 2 2 1 2 62 75 63
116 2 2 1 2 63 75 76
117 2 2 1 2 63 76 77
118 2 2 1 2 63 77 64
119 2 2 1 2 64 77 65
120 2 2 1 2 65 77 78
121 2 2 1 2 66 79 67
122 2 2 1 2 67 79 80
123 2 2 1 2 67 80 81
124 2 2 1 2 67 81 68
125 2 2 1 2 68 81 69
126 2 2 1 2 69 81 82
127 2 2 1 2 69 82 83
128 2 2 1 2 69 83 70
129 2 2 1 2 70 83 71
130 2 2 1 2 71 83 84
131 2 2 1 2 71 84 85
132 2 2 1 2 71 85 72
133 2 2 1 2 72 85 73
134 2 2 1 2 73 85 86
135 2 2 1 2 73 86 87
136 2 2 1 2 73 87 74
137 2 2 1 2 74 87 75
138 2 2 1 2 75 87 88
139 2 2 1 2 75 88 89
140 2 2 1 2 75 89 76
141 2 2 1 2 76 89 77
142 2 2 1 2 77 89 90
143 2 2 1 2 77 90 91
144 2 2 1 2 77 91 78
145 2 2 1 2 79 92 93
146 2 2 1 2 79 93 80
147 2 2 1 2 80 93 81
148 2 2 1 2 81 93 94
149 2 2 1 2 81 94 95
150 2 2 1 2 81 95 82
151 2 2 1 2 82 95 83
152 2 2 1 2 83 95 96
153 2 2 1 2 83 96 97
154 2 2 1 2 83 97 84
155 2 2 1 2 84 97 85
156 2 2 1 2 85 97 98
157 2 2 1 2 85 98 99
158 2 2 1 2 85 99 86
159 2 2 1 2 86 99 87
160 2 2 1 2 87 99 100
161 2 2 1 2 87 100 101
162 2 2 1 2 87 101 88
163 2 2 1 2 88 101 89
164 2 2 1 2 89 101 102
165 2 2 1 2 89 102 103
166 2 2 1 2 89 103 90
167 2 2 1 2 90 103 91
168 2 2 1 2 91 103 104
169 1 2 2 10 1 2
170 1 2 2 10 2 3
171 1 2 2 10 3 4
172 1 2 2 10 4 5
173 1 2 2 10 5 6
174 1 2 2 10 6 7
175 1 2 2 10 7 8
176 1 2 2 10 8 9
177 1 2 2 10 9 10
178 1 2 2 10 10 11
179 1 2 2 10 11 12
180 1 2 2 10 12 13
181 1 2 3 11 92 93
182 1 2 3 11 93 94
183 1 2 3 11 94 95
184 1 2 3 11 95 96
185 1 2 3 11 96 97
186 1 2 3 11 97 98
187 1 2 3 11 98 99
188 1 2 3 11 99 100
189 1 2 3 11 100 101
190 1 2 3 11 101 102
191 1 2 3 11 102 103
192 1 2 3 11 103 104
193 1 2 4 12 1 14
194 1 2 4 12 14 27
195 1 2 4 12 27 40
196 1 2 4 12 40 53
197 1 2 4 12 53 66
198 1 2 4 12 66 79
199 1 2 4 12 79 92
200 1 2 4 13 13 26
201 1 2 4 13 26 39
202 1 2 4 13 39 52
203 1 2 4 13 52 65
204 1 2 4 13 65 78
205 1 2 4 13 78 91
206 1 2 4 13 91 104
$EndElements
